[
    {
        "model":"gamebrowser.tag",
        "pk":21,
        "fields":{
            "name":"Indie"
        }
    },
    {
        "model":"gamebrowser.tag",
        "pk":22,
        "fields":{
            "name":"Action"
        }
    },
    {
        "model":"gamebrowser.tag",
        "pk":23,
        "fields":{
            "name":"Adventure"
        }
    },
    {
        "model":"gamebrowser.tag",
        "pk":24,
        "fields":{
            "name":"Strategy"
        }
    },
    {
        "model":"gamebrowser.tag",
        "pk":25,
        "fields":{
            "name":"Casual"
        }
    },
    {
        "model":"gamebrowser.tag",
        "pk":26,
        "fields":{
            "name":"Simulation"
        }
    },
    {
        "model":"gamebrowser.tag",
        "pk":27,
        "fields":{
            "name":"RPG"
        }
    },
    {
        "model":"gamebrowser.tag",
        "pk":28,
        "fields":{
            "name":"Multiplayer"
        }
    },
    {
        "model":"gamebrowser.tag",
        "pk":29,
        "fields":{
            "name":"Sports"
        }
    },
    {
        "model":"gamebrowser.tag",
        "pk":30,
        "fields":{
            "name":"Racing"
        }
    },
    {
        "model":"gamebrowser.tag",
        "pk":31,
        "fields":{
            "name":"Puzzle"
        }
    },
    {
        "model":"gamebrowser.tag",
        "pk":32,
        "fields":{
            "name":"Horror"
        }
    },
    {
        "model":"gamebrowser.tag",
        "pk":33,
        "fields":{
            "name":"Open World"
        }
    },
    {
        "model":"gamebrowser.tag",
        "pk":34,
        "fields":{
            "name":"Sci-Fi"
        }
    },
    {
        "model":"gamebrowser.tag",
        "pk":35,
        "fields":{
            "name":"Gambling"
        }
    },
    {
        "model":"gamebrowser.tag",
        "pk":36,
        "fields":{
            "name":"Educational"
        }
    },
    {
        "model":"gamebrowser.tag",
        "pk":37,
        "fields":{
            "name":"FPS"
        }
    },
    {
        "model":"gamebrowser.tag",
        "pk":38,
        "fields":{
            "name":"TPS"
        }
    },
    {
        "model":"gamebrowser.tag",
        "pk":39,
        "fields":{
            "name":"Platformer"
        }
    },
    {
        "model":"gamebrowser.tag",
        "pk":40,
        "fields":{
            "name":"MMO"
        }
    },
    {
        "model":"gamebrowser.game",
        "pk":1,
        "fields":{
            "name":"Duke Nukem: Epic Uprising: Prepare to Die Edition",
            "url":"http://www.game.com/Duke_Nukem:_Epic_Uprising:_Prepare_to_Die_Edition",
            "price":85,
            "discount":50,
            "developer":null,
            "thumbnail":"",
            "short_description":"Duke Nukem: Epic Uprising: Prepare to Die Edition is a great game.",
            "long_description":"Duke Nukem: Epic Uprising: Prepare to Die Edition is a great game. This is a long description.",
            "release_date":"2017-01-15T18:10:45.578Z",
            "update_date":"2017-01-15T18:10:45.782Z",
            "tags":[
                23,
                26,
                27,
                32,
                36,
                38
            ]
        }
    },
    {
        "model":"gamebrowser.game",
        "pk":2,
        "fields":{
            "name":"Duke Nukem: The Epic Shock 3",
            "url":"http://www.game.com/Duke_Nukem:_The_Epic_Shock_3",
            "price":57,
            "discount":75,
            "developer":null,
            "thumbnail":"",
            "short_description":"Duke Nukem: The Epic Shock 3 is a great game.",
            "long_description":"Duke Nukem: The Epic Shock 3 is a great game. This is a long description.",
            "release_date":"2017-01-15T18:10:45.808Z",
            "update_date":"2017-01-15T18:10:46.030Z",
            "tags":[
                22,
                23,
                27,
                29,
                33
            ]
        }
    },
    {
        "model":"gamebrowser.game",
        "pk":3,
        "fields":{
            "name":"Sonic's Dark Legend Remastered",
            "url":"http://www.game.com/Sonic_s_Dark_Legend_Remastered",
            "price":19,
            "discount":0,
            "developer":null,
            "thumbnail":"",
            "short_description":"Sonic's Dark Legend Remastered is a classic game.",
            "long_description":"Sonic's Dark Legend Remastered is a classic game. This is a long description.",
            "release_date":"2017-01-15T18:10:46.077Z",
            "update_date":"2017-01-15T18:10:46.335Z",
            "tags":[
                22,
                23,
                25,
                32,
                33,
                37,
                38
            ]
        }
    },
    {
        "model":"gamebrowser.game",
        "pk":4,
        "fields":{
            "name":"Master Chief: Dark Crystals 3",
            "url":"http://www.game.com/Master_Chief:_Dark_Crystals_3",
            "price":7,
            "discount":25,
            "developer":null,
            "thumbnail":"",
            "short_description":"Master Chief: Dark Crystals 3 is an action-packed game.",
            "long_description":"Master Chief: Dark Crystals 3 is an action-packed game. This is a long description.",
            "release_date":"2017-01-15T18:10:46.358Z",
            "update_date":"2017-01-15T18:10:46.506Z",
            "tags":[
                24,
                29,
                37,
                38
            ]
        }
    },
    {
        "model":"gamebrowser.game",
        "pk":5,
        "fields":{
            "name":"Sonic's Lost Warfare",
            "url":"http://www.game.com/Sonic_s_Lost_Warfare",
            "price":13,
            "discount":25,
            "developer":null,
            "thumbnail":"",
            "short_description":"Sonic's Lost Warfare is an action-packed game.",
            "long_description":"Sonic's Lost Warfare is an action-packed game. This is a long description.",
            "release_date":"2017-01-15T18:10:46.524Z",
            "update_date":"2017-01-15T18:10:46.753Z",
            "tags":[
                21,
                25,
                26,
                35,
                38,
                39
            ]
        }
    },
    {
        "model":"gamebrowser.game",
        "pk":6,
        "fields":{
            "name":"Nathan Drake and the Dark Shock 2",
            "url":"http://www.game.com/Nathan_Drake_and_the_Dark_Shock_2",
            "price":65,
            "discount":0,
            "developer":null,
            "thumbnail":"",
            "short_description":"Nathan Drake and the Dark Shock 2 is an action-packed game.",
            "long_description":"Nathan Drake and the Dark Shock 2 is an action-packed game. This is a long description.",
            "release_date":"2017-01-15T18:10:46.800Z",
            "update_date":"2017-01-15T18:10:46.884Z",
            "tags":[
                39
            ]
        }
    },
    {
        "model":"gamebrowser.game",
        "pk":7,
        "fields":{
            "name":"Master Chief: Dead Doom",
            "url":"http://www.game.com/Master_Chief:_Dead_Doom",
            "price":54,
            "discount":75,
            "developer":null,
            "thumbnail":"",
            "short_description":"Master Chief: Dead Doom is an action-packed game.",
            "long_description":"Master Chief: Dead Doom is an action-packed game. This is a long description.",
            "release_date":"2017-01-15T18:10:46.915Z",
            "update_date":"2017-01-15T18:10:47.195Z",
            "tags":[
                23,
                27,
                29,
                31,
                35,
                37,
                40
            ]
        }
    },
    {
        "model":"gamebrowser.game",
        "pk":8,
        "fields":{
            "name":"Duke Nukem: The Endless Legend: Legendary Edition",
            "url":"http://www.game.com/Duke_Nukem:_The_Endless_Legend:_Legendary_Edition",
            "price":61,
            "discount":75,
            "developer":null,
            "thumbnail":"",
            "short_description":"Duke Nukem: The Endless Legend: Legendary Edition is an action-packed game.",
            "long_description":"Duke Nukem: The Endless Legend: Legendary Edition is an action-packed game. This is a long description.",
            "release_date":"2017-01-15T18:10:47.234Z",
            "update_date":"2017-01-15T18:10:47.555Z",
            "tags":[
                23,
                26,
                27,
                31,
                32,
                33,
                39
            ]
        }
    },
    {
        "model":"gamebrowser.game",
        "pk":9,
        "fields":{
            "name":"Sonic: The Dead Crystals GOTY",
            "url":"http://www.game.com/Sonic:_The_Dead_Crystals_GOTY",
            "price":8,
            "discount":50,
            "developer":null,
            "thumbnail":"",
            "short_description":"Sonic: The Dead Crystals GOTY is a new game.",
            "long_description":"Sonic: The Dead Crystals GOTY is a new game. This is a long description.",
            "release_date":"2017-01-15T18:10:47.587Z",
            "update_date":"2017-01-15T18:10:47.843Z",
            "tags":[
                25,
                28,
                33,
                36,
                37,
                38,
                39
            ]
        }
    },
    {
        "model":"gamebrowser.game",
        "pk":10,
        "fields":{
            "name":"Garfield: The Sexy Warfare 2",
            "url":"http://www.game.com/Garfield:_The_Sexy_Warfare_2",
            "price":7,
            "discount":50,
            "developer":null,
            "thumbnail":"",
            "short_description":"Garfield: The Sexy Warfare 2 is an amazing game.",
            "long_description":"Garfield: The Sexy Warfare 2 is an amazing game. This is a long description.",
            "release_date":"2017-01-15T18:10:47.875Z",
            "update_date":"2017-01-15T18:10:48.074Z",
            "tags":[
                24,
                26,
                29,
                31,
                35,
                40
            ]
        }
    },
    {
        "model":"gamebrowser.game",
        "pk":11,
        "fields":{
            "name":"Sonic: The Sexy Legend GOTY",
            "url":"http://www.game.com/Sonic:_The_Sexy_Legend_GOTY",
            "price":65,
            "discount":0,
            "developer":null,
            "thumbnail":"",
            "short_description":"Sonic: The Sexy Legend GOTY is a new game.",
            "long_description":"Sonic: The Sexy Legend GOTY is a new game. This is a long description.",
            "release_date":"2017-01-15T18:10:48.111Z",
            "update_date":"2017-01-15T18:10:48.268Z",
            "tags":[
                25,
                28,
                31,
                37
            ]
        }
    },
    {
        "model":"gamebrowser.game",
        "pk":12,
        "fields":{
            "name":"Zelda's Dead Legend: Prepare to Die Edition",
            "url":"http://www.game.com/Zelda_s_Dead_Legend:_Prepare_to_Die_Edition",
            "price":17,
            "discount":25,
            "developer":null,
            "thumbnail":"",
            "short_description":"Zelda's Dead Legend: Prepare to Die Edition is an amazing game.",
            "long_description":"Zelda's Dead Legend: Prepare to Die Edition is an amazing game. This is a long description.",
            "release_date":"2017-01-15T18:10:48.323Z",
            "update_date":"2017-01-15T18:10:48.513Z",
            "tags":[
                21,
                24,
                28,
                35,
                36,
                38
            ]
        }
    },
    {
        "model":"gamebrowser.game",
        "pk":13,
        "fields":{
            "name":"Zelda's Dark Legend Redux",
            "url":"http://www.game.com/Zelda_s_Dark_Legend_Redux",
            "price":16,
            "discount":25,
            "developer":null,
            "thumbnail":"",
            "short_description":"Zelda's Dark Legend Redux is a great game.",
            "long_description":"Zelda's Dark Legend Redux is a great game. This is a long description.",
            "release_date":"2017-01-15T18:10:48.541Z",
            "update_date":"2017-01-15T18:10:48.826Z",
            "tags":[
                21,
                24,
                27,
                31,
                33,
                34,
                36
            ]
        }
    },
    {
        "model":"gamebrowser.game",
        "pk":14,
        "fields":{
            "name":"The Witcher: Dead Crystals 2",
            "url":"http://www.game.com/The_Witcher:_Dead_Crystals_2",
            "price":7,
            "discount":25,
            "developer":null,
            "thumbnail":"",
            "short_description":"The Witcher: Dead Crystals 2 is an amazing game.",
            "long_description":"The Witcher: Dead Crystals 2 is an amazing game. This is a long description.",
            "release_date":"2017-01-15T18:10:48.856Z",
            "update_date":"2017-01-15T18:10:49.058Z",
            "tags":[
                23,
                24,
                36,
                37
            ]
        }
    },
    {
        "model":"gamebrowser.game",
        "pk":15,
        "fields":{
            "name":"The Witcher's Dead Souls 3",
            "url":"http://www.game.com/The_Witcher_s_Dead_Souls_3",
            "price":5,
            "discount":75,
            "developer":null,
            "thumbnail":"",
            "short_description":"The Witcher's Dead Souls 3 is an amazing game.",
            "long_description":"The Witcher's Dead Souls 3 is an amazing game. This is a long description.",
            "release_date":"2017-01-15T18:10:49.087Z",
            "update_date":"2017-01-15T18:10:49.202Z",
            "tags":[
                37,
                40
            ]
        }
    },
    {
        "model":"gamebrowser.game",
        "pk":16,
        "fields":{
            "name":"Nathan Drake in the Lost World 3",
            "url":"http://www.game.com/Nathan_Drake_in_the_Lost_World_3",
            "price":8,
            "discount":0,
            "developer":null,
            "thumbnail":"",
            "short_description":"Nathan Drake in the Lost World 3 is an action-packed game.",
            "long_description":"Nathan Drake in the Lost World 3 is an action-packed game. This is a long description.",
            "release_date":"2017-01-15T18:10:49.228Z",
            "update_date":"2017-01-15T18:10:49.417Z",
            "tags":[
                24,
                30,
                31,
                39
            ]
        }
    },
    {
        "model":"gamebrowser.game",
        "pk":17,
        "fields":{
            "name":"Lara Croft in the Final Adventure",
            "url":"http://www.game.com/Lara_Croft_in_the_Final_Adventure",
            "price":95,
            "discount":50,
            "developer":null,
            "thumbnail":"",
            "short_description":"Lara Croft in the Final Adventure is an action-packed game.",
            "long_description":"Lara Croft in the Final Adventure is an action-packed game. This is a long description.",
            "release_date":"2017-01-15T18:10:49.445Z",
            "update_date":"2017-01-15T18:10:49.642Z",
            "tags":[
                25,
                29,
                31,
                33,
                35
            ]
        }
    },
    {
        "model":"gamebrowser.game",
        "pk":18,
        "fields":{
            "name":"Zelda: The Epic Warfare: Prepare to Die Edition",
            "url":"http://www.game.com/Zelda:_The_Epic_Warfare:_Prepare_to_Die_Edition",
            "price":59,
            "discount":75,
            "developer":null,
            "thumbnail":"",
            "short_description":"Zelda: The Epic Warfare: Prepare to Die Edition is an action-packed game.",
            "long_description":"Zelda: The Epic Warfare: Prepare to Die Edition is an action-packed game. This is a long description.",
            "release_date":"2017-01-15T18:10:49.670Z",
            "update_date":"2017-01-15T18:10:49.893Z",
            "tags":[
                23,
                24,
                32,
                35,
                38
            ]
        }
    },
    {
        "model":"gamebrowser.game",
        "pk":19,
        "fields":{
            "name":"Duke Nukem's Lost Souls 2",
            "url":"http://www.game.com/Duke_Nukem_s_Lost_Souls_2",
            "price":81,
            "discount":50,
            "developer":null,
            "thumbnail":"",
            "short_description":"Duke Nukem's Lost Souls 2 is an amazing game.",
            "long_description":"Duke Nukem's Lost Souls 2 is an amazing game. This is a long description.",
            "release_date":"2017-01-15T18:10:49.946Z",
            "update_date":"2017-01-15T18:10:50.216Z",
            "tags":[
                21,
                23,
                31,
                36,
                37,
                38
            ]
        }
    },
    {
        "model":"gamebrowser.game",
        "pk":20,
        "fields":{
            "name":"Master Chief in the Dead Doom: Legendary Edition",
            "url":"http://www.game.com/Master_Chief_in_the_Dead_Doom:_Legendary_Edition",
            "price":52,
            "discount":0,
            "developer":null,
            "thumbnail":"",
            "short_description":"Master Chief in the Dead Doom: Legendary Edition is a new game.",
            "long_description":"Master Chief in the Dead Doom: Legendary Edition is a new game. This is a long description.",
            "release_date":"2017-01-15T18:10:50.247Z",
            "update_date":"2017-01-15T18:10:50.456Z",
            "tags":[
                22,
                23,
                28,
                36,
                39
            ]
        }
    },
    {
        "model":"gamebrowser.game",
        "pk":21,
        "fields":{
            "name":"Sonic's Endless Crystals: Director's Cut",
            "url":"http://www.game.com/Sonic_s_Endless_Crystals:_Director_s_Cut",
            "price":84,
            "discount":50,
            "developer":null,
            "thumbnail":"",
            "short_description":"Sonic's Endless Crystals: Director's Cut is a great game.",
            "long_description":"Sonic's Endless Crystals: Director's Cut is a great game. This is a long description.",
            "release_date":"2017-01-15T18:10:50.501Z",
            "update_date":"2017-01-15T18:10:50.871Z",
            "tags":[
                23,
                24,
                25,
                30,
                32,
                35,
                39
            ]
        }
    },
    {
        "model":"gamebrowser.game",
        "pk":22,
        "fields":{
            "name":"Nathan Drake and the Epic Shock 3",
            "url":"http://www.game.com/Nathan_Drake_and_the_Epic_Shock_3",
            "price":14,
            "discount":25,
            "developer":null,
            "thumbnail":"",
            "short_description":"Nathan Drake and the Epic Shock 3 is a classic game.",
            "long_description":"Nathan Drake and the Epic Shock 3 is a classic game. This is a long description.",
            "release_date":"2017-01-15T18:10:50.900Z",
            "update_date":"2017-01-15T18:10:51.042Z",
            "tags":[
                27,
                28,
                30
            ]
        }
    },
    {
        "model":"gamebrowser.game",
        "pk":23,
        "fields":{
            "name":"Duke Nukem and the Lost Legend: Director's Cut",
            "url":"http://www.game.com/Duke_Nukem_and_the_Lost_Legend:_Director_s_Cut",
            "price":100,
            "discount":75,
            "developer":null,
            "thumbnail":"",
            "short_description":"Duke Nukem and the Lost Legend: Director's Cut is an action-packed game.",
            "long_description":"Duke Nukem and the Lost Legend: Director's Cut is an action-packed game. This is a long description.",
            "release_date":"2017-01-15T18:10:51.069Z",
            "update_date":"2017-01-15T18:10:51.274Z",
            "tags":[
                23,
                26,
                31,
                33,
                40
            ]
        }
    },
    {
        "model":"gamebrowser.game",
        "pk":24,
        "fields":{
            "name":"Lara Croft's Dark Warfare: Legendary Edition",
            "url":"http://www.game.com/Lara_Croft_s_Dark_Warfare:_Legendary_Edition",
            "price":15,
            "discount":0,
            "developer":null,
            "thumbnail":"",
            "short_description":"Lara Croft's Dark Warfare: Legendary Edition is an amazing game.",
            "long_description":"Lara Croft's Dark Warfare: Legendary Edition is an amazing game. This is a long description.",
            "release_date":"2017-01-15T18:10:51.314Z",
            "update_date":"2017-01-15T18:10:51.529Z",
            "tags":[
                26,
                27,
                30,
                35,
                36
            ]
        }
    },
    {
        "model":"gamebrowser.game",
        "pk":25,
        "fields":{
            "name":"Master Chief in the Sexy Fantasy",
            "url":"http://www.game.com/Master_Chief_in_the_Sexy_Fantasy",
            "price":99,
            "discount":75,
            "developer":null,
            "thumbnail":"",
            "short_description":"Master Chief in the Sexy Fantasy is an amazing game.",
            "long_description":"Master Chief in the Sexy Fantasy is an amazing game. This is a long description.",
            "release_date":"2017-01-15T18:10:51.561Z",
            "update_date":"2017-01-15T18:10:51.861Z",
            "tags":[
                21,
                22,
                23,
                25,
                30,
                37
            ]
        }
    },
    {
        "model":"gamebrowser.game",
        "pk":26,
        "fields":{
            "name":"Master Chief: Sexy Shock GOTY",
            "url":"http://www.game.com/Master_Chief:_Sexy_Shock_GOTY",
            "price":78,
            "discount":50,
            "developer":null,
            "thumbnail":"",
            "short_description":"Master Chief: Sexy Shock GOTY is a classic game.",
            "long_description":"Master Chief: Sexy Shock GOTY is a classic game. This is a long description.",
            "release_date":"2017-01-15T18:10:51.899Z",
            "update_date":"2017-01-15T18:10:52.089Z",
            "tags":[
                33,
                38
            ]
        }
    },
    {
        "model":"gamebrowser.game",
        "pk":27,
        "fields":{
            "name":"Sonic and the Chaos Doom 3",
            "url":"http://www.game.com/Sonic_and_the_Chaos_Doom_3",
            "price":14,
            "discount":25,
            "developer":null,
            "thumbnail":"",
            "short_description":"Sonic and the Chaos Doom 3 is a great game.",
            "long_description":"Sonic and the Chaos Doom 3 is a great game. This is a long description.",
            "release_date":"2017-01-15T18:10:52.117Z",
            "update_date":"2017-01-15T18:10:52.363Z",
            "tags":[
                30,
                32,
                33,
                37,
                38
            ]
        }
    },
    {
        "model":"gamebrowser.game",
        "pk":28,
        "fields":{
            "name":"Super Mario: The Sexy Fantasy: Prepare to Die Edition",
            "url":"http://www.game.com/Super_Mario:_The_Sexy_Fantasy:_Prepare_to_Die_Edition",
            "price":75,
            "discount":75,
            "developer":null,
            "thumbnail":"",
            "short_description":"Super Mario: The Sexy Fantasy: Prepare to Die Edition is a great game.",
            "long_description":"Super Mario: The Sexy Fantasy: Prepare to Die Edition is a great game. This is a long description.",
            "release_date":"2017-01-15T18:10:52.390Z",
            "update_date":"2017-01-15T18:10:52.530Z",
            "tags":[
                22,
                23,
                37,
                40
            ]
        }
    },
    {
        "model":"gamebrowser.game",
        "pk":29,
        "fields":{
            "name":"Lara Croft: Chaos Uprising Redux",
            "url":"http://www.game.com/Lara_Croft:_Chaos_Uprising_Redux",
            "price":90,
            "discount":25,
            "developer":null,
            "thumbnail":"",
            "short_description":"Lara Croft: Chaos Uprising Redux is a new game.",
            "long_description":"Lara Croft: Chaos Uprising Redux is a new game. This is a long description.",
            "release_date":"2017-01-15T18:10:52.568Z",
            "update_date":"2017-01-15T18:10:52.632Z",
            "tags":[
                32
            ]
        }
    },
    {
        "model":"gamebrowser.game",
        "pk":30,
        "fields":{
            "name":"Master Chief's Endless Shock GOTY",
            "url":"http://www.game.com/Master_Chief_s_Endless_Shock_GOTY",
            "price":49,
            "discount":75,
            "developer":null,
            "thumbnail":"",
            "short_description":"Master Chief's Endless Shock GOTY is an action-packed game.",
            "long_description":"Master Chief's Endless Shock GOTY is an action-packed game. This is a long description.",
            "release_date":"2017-01-15T18:10:52.664Z",
            "update_date":"2017-01-15T18:10:52.844Z",
            "tags":[
                26,
                32,
                34,
                35,
                38
            ]
        }
    },
    {
        "model":"gamebrowser.game",
        "pk":31,
        "fields":{
            "name":"The Witcher in the Final Shock Remastered",
            "url":"http://www.game.com/The_Witcher_in_the_Final_Shock_Remastered",
            "price":43,
            "discount":75,
            "developer":null,
            "thumbnail":"",
            "short_description":"The Witcher in the Final Shock Remastered is a new game.",
            "long_description":"The Witcher in the Final Shock Remastered is a new game. This is a long description.",
            "release_date":"2017-01-15T18:10:52.877Z",
            "update_date":"2017-01-15T18:10:53.047Z",
            "tags":[
                23,
                31,
                33,
                38
            ]
        }
    },
    {
        "model":"gamebrowser.game",
        "pk":32,
        "fields":{
            "name":"Duke Nukem: Sexy Uprising 2",
            "url":"http://www.game.com/Duke_Nukem:_Sexy_Uprising_2",
            "price":14,
            "discount":75,
            "developer":null,
            "thumbnail":"",
            "short_description":"Duke Nukem: Sexy Uprising 2 is an action-packed game.",
            "long_description":"Duke Nukem: Sexy Uprising 2 is an action-packed game. This is a long description.",
            "release_date":"2017-01-15T18:10:53.071Z",
            "update_date":"2017-01-15T18:10:53.250Z",
            "tags":[
                23,
                25,
                27,
                30,
                40
            ]
        }
    },
    {
        "model":"gamebrowser.game",
        "pk":33,
        "fields":{
            "name":"The Witcher: The Epic Souls: Prepare to Die Edition",
            "url":"http://www.game.com/The_Witcher:_The_Epic_Souls:_Prepare_to_Die_Edition",
            "price":86,
            "discount":50,
            "developer":null,
            "thumbnail":"",
            "short_description":"The Witcher: The Epic Souls: Prepare to Die Edition is an action-packed game.",
            "long_description":"The Witcher: The Epic Souls: Prepare to Die Edition is an action-packed game. This is a long description.",
            "release_date":"2017-01-15T18:10:53.285Z",
            "update_date":"2017-01-15T18:10:53.538Z",
            "tags":[
                27,
                29,
                30,
                33,
                36,
                38,
                40
            ]
        }
    },
    {
        "model":"gamebrowser.game",
        "pk":34,
        "fields":{
            "name":"Master Chief and the Dark Warfare DX",
            "url":"http://www.game.com/Master_Chief_and_the_Dark_Warfare_DX",
            "price":50,
            "discount":0,
            "developer":null,
            "thumbnail":"",
            "short_description":"Master Chief and the Dark Warfare DX is an amazing game.",
            "long_description":"Master Chief and the Dark Warfare DX is an amazing game. This is a long description.",
            "release_date":"2017-01-15T18:10:53.572Z",
            "update_date":"2017-01-15T18:10:53.948Z",
            "tags":[
                22,
                25,
                26,
                27,
                28,
                31,
                39
            ]
        }
    },
    {
        "model":"gamebrowser.game",
        "pk":35,
        "fields":{
            "name":"Master Chief: Endless Adventure: Legendary Edition",
            "url":"http://www.game.com/Master_Chief:_Endless_Adventure:_Legendary_Edition",
            "price":79,
            "discount":50,
            "developer":null,
            "thumbnail":"",
            "short_description":"Master Chief: Endless Adventure: Legendary Edition is a great game.",
            "long_description":"Master Chief: Endless Adventure: Legendary Edition is a great game. This is a long description.",
            "release_date":"2017-01-15T18:10:53.989Z",
            "update_date":"2017-01-15T18:10:54.044Z",
            "tags":[
                33
            ]
        }
    },
    {
        "model":"gamebrowser.game",
        "pk":36,
        "fields":{
            "name":"Sonic: The Epic Uprising DX",
            "url":"http://www.game.com/Sonic:_The_Epic_Uprising_DX",
            "price":78,
            "discount":25,
            "developer":null,
            "thumbnail":"",
            "short_description":"Sonic: The Epic Uprising DX is an amazing game.",
            "long_description":"Sonic: The Epic Uprising DX is an amazing game. This is a long description.",
            "release_date":"2017-01-15T18:10:54.100Z",
            "update_date":"2017-01-15T18:10:54.338Z",
            "tags":[
                21,
                24,
                29,
                30,
                34,
                37
            ]
        }
    },
    {
        "model":"gamebrowser.game",
        "pk":37,
        "fields":{
            "name":"Nathan Drake: The Endless Legend 3",
            "url":"http://www.game.com/Nathan_Drake:_The_Endless_Legend_3",
            "price":49,
            "discount":75,
            "developer":null,
            "thumbnail":"",
            "short_description":"Nathan Drake: The Endless Legend 3 is an action-packed game.",
            "long_description":"Nathan Drake: The Endless Legend 3 is an action-packed game. This is a long description.",
            "release_date":"2017-01-15T18:10:54.399Z",
            "update_date":"2017-01-15T18:10:54.714Z",
            "tags":[
                24,
                26,
                27,
                28,
                29,
                35,
                36
            ]
        }
    },
    {
        "model":"gamebrowser.game",
        "pk":38,
        "fields":{
            "name":"Master Chief: Sexy Warfare 2",
            "url":"http://www.game.com/Master_Chief:_Sexy_Warfare_2",
            "price":63,
            "discount":75,
            "developer":null,
            "thumbnail":"",
            "short_description":"Master Chief: Sexy Warfare 2 is a classic game.",
            "long_description":"Master Chief: Sexy Warfare 2 is a classic game. This is a long description.",
            "release_date":"2017-01-15T18:10:54.744Z",
            "update_date":"2017-01-15T18:10:55.007Z",
            "tags":[
                21,
                25,
                26,
                32,
                38
            ]
        }
    },
    {
        "model":"gamebrowser.game",
        "pk":39,
        "fields":{
            "name":"The Witcher and the Magical Legend GOTY",
            "url":"http://www.game.com/The_Witcher_and_the_Magical_Legend_GOTY",
            "price":65,
            "discount":25,
            "developer":null,
            "thumbnail":"",
            "short_description":"The Witcher and the Magical Legend GOTY is an amazing game.",
            "long_description":"The Witcher and the Magical Legend GOTY is an amazing game. This is a long description.",
            "release_date":"2017-01-15T18:10:55.039Z",
            "update_date":"2017-01-15T18:10:55.236Z",
            "tags":[
                28,
                29,
                31,
                34,
                39
            ]
        }
    },
    {
        "model":"gamebrowser.game",
        "pk":40,
        "fields":{
            "name":"Lara Croft: The Legendary World: Director's Cut",
            "url":"http://www.game.com/Lara_Croft:_The_Legendary_World:_Director_s_Cut",
            "price":66,
            "discount":50,
            "developer":null,
            "thumbnail":"",
            "short_description":"Lara Croft: The Legendary World: Director's Cut is an amazing game.",
            "long_description":"Lara Croft: The Legendary World: Director's Cut is an amazing game. This is a long description.",
            "release_date":"2017-01-15T18:10:55.292Z",
            "update_date":"2017-01-15T18:10:55.513Z",
            "tags":[
                21,
                34,
                37,
                40
            ]
        }
    },
    {
        "model":"gamebrowser.game",
        "pk":41,
        "fields":{
            "name":"Barbie: The Endless Shock: Legendary Edition",
            "url":"http://www.game.com/Barbie:_The_Endless_Shock:_Legendary_Edition",
            "price":66,
            "discount":50,
            "developer":null,
            "thumbnail":"",
            "short_description":"Barbie: The Endless Shock: Legendary Edition is an amazing game.",
            "long_description":"Barbie: The Endless Shock: Legendary Edition is an amazing game. This is a long description.",
            "release_date":"2017-01-15T18:10:55.663Z",
            "update_date":"2017-01-15T18:10:55.846Z",
            "tags":[
                27,
                29,
                33,
                39
            ]
        }
    },
    {
        "model":"gamebrowser.game",
        "pk":42,
        "fields":{
            "name":"Lara Croft's Sexy Adventure Redux",
            "url":"http://www.game.com/Lara_Croft_s_Sexy_Adventure_Redux",
            "price":62,
            "discount":0,
            "developer":null,
            "thumbnail":"",
            "short_description":"Lara Croft's Sexy Adventure Redux is an action-packed game.",
            "long_description":"Lara Croft's Sexy Adventure Redux is an action-packed game. This is a long description.",
            "release_date":"2017-01-15T18:10:55.874Z",
            "update_date":"2017-01-15T18:10:56.080Z",
            "tags":[
                26,
                30,
                31,
                36,
                37
            ]
        }
    },
    {
        "model":"gamebrowser.game",
        "pk":43,
        "fields":{
            "name":"Super Mario: The Sexy Uprising 3",
            "url":"http://www.game.com/Super_Mario:_The_Sexy_Uprising_3",
            "price":2,
            "discount":25,
            "developer":null,
            "thumbnail":"",
            "short_description":"Super Mario: The Sexy Uprising 3 is an amazing game.",
            "long_description":"Super Mario: The Sexy Uprising 3 is an amazing game. This is a long description.",
            "release_date":"2017-01-15T18:10:56.114Z",
            "update_date":"2017-01-15T18:10:56.373Z",
            "tags":[
                22,
                24,
                25,
                28,
                29,
                32
            ]
        }
    },
    {
        "model":"gamebrowser.game",
        "pk":44,
        "fields":{
            "name":"Lara Croft: Epic Legend: Prepare to Die Edition",
            "url":"http://www.game.com/Lara_Croft:_Epic_Legend:_Prepare_to_Die_Edition",
            "price":23,
            "discount":50,
            "developer":null,
            "thumbnail":"",
            "short_description":"Lara Croft: Epic Legend: Prepare to Die Edition is an amazing game.",
            "long_description":"Lara Croft: Epic Legend: Prepare to Die Edition is an amazing game. This is a long description.",
            "release_date":"2017-01-15T18:10:56.400Z",
            "update_date":"2017-01-15T18:10:56.488Z",
            "tags":[
                27,
                31
            ]
        }
    },
    {
        "model":"gamebrowser.game",
        "pk":45,
        "fields":{
            "name":"Lara Croft in the Sexy Crystals 3",
            "url":"http://www.game.com/Lara_Croft_in_the_Sexy_Crystals_3",
            "price":22,
            "discount":50,
            "developer":null,
            "thumbnail":"",
            "short_description":"Lara Croft in the Sexy Crystals 3 is an action-packed game.",
            "long_description":"Lara Croft in the Sexy Crystals 3 is an action-packed game. This is a long description.",
            "release_date":"2017-01-15T18:10:56.516Z",
            "update_date":"2017-01-15T18:10:56.845Z",
            "tags":[
                21,
                24,
                26,
                27,
                31,
                33,
                34
            ]
        }
    },
    {
        "model":"gamebrowser.game",
        "pk":46,
        "fields":{
            "name":"Barbie and the Legendary Warfare 2",
            "url":"http://www.game.com/Barbie_and_the_Legendary_Warfare_2",
            "price":30,
            "discount":50,
            "developer":null,
            "thumbnail":"",
            "short_description":"Barbie and the Legendary Warfare 2 is an amazing game.",
            "long_description":"Barbie and the Legendary Warfare 2 is an amazing game. This is a long description.",
            "release_date":"2017-01-15T18:10:56.877Z",
            "update_date":"2017-01-15T18:10:57.122Z",
            "tags":[
                23,
                26,
                27,
                28,
                33,
                36,
                38
            ]
        }
    },
    {
        "model":"gamebrowser.game",
        "pk":47,
        "fields":{
            "name":"Zelda in the Endless Uprising DX",
            "url":"http://www.game.com/Zelda_in_the_Endless_Uprising_DX",
            "price":25,
            "discount":50,
            "developer":null,
            "thumbnail":"",
            "short_description":"Zelda in the Endless Uprising DX is a classic game.",
            "long_description":"Zelda in the Endless Uprising DX is a classic game. This is a long description.",
            "release_date":"2017-01-15T18:10:57.156Z",
            "update_date":"2017-01-15T18:10:57.479Z",
            "tags":[
                24,
                32,
                34,
                37,
                38,
                40
            ]
        }
    },
    {
        "model":"gamebrowser.game",
        "pk":48,
        "fields":{
            "name":"Duke Nukem: The Dark Legend Redux",
            "url":"http://www.game.com/Duke_Nukem:_The_Dark_Legend_Redux",
            "price":52,
            "discount":75,
            "developer":null,
            "thumbnail":"",
            "short_description":"Duke Nukem: The Dark Legend Redux is an action-packed game.",
            "long_description":"Duke Nukem: The Dark Legend Redux is an action-packed game. This is a long description.",
            "release_date":"2017-01-15T18:10:57.507Z",
            "update_date":"2017-01-15T18:10:57.574Z",
            "tags":[
                26
            ]
        }
    },
    {
        "model":"gamebrowser.game",
        "pk":49,
        "fields":{
            "name":"Master Chief and the Chaos Legend GOTY",
            "url":"http://www.game.com/Master_Chief_and_the_Chaos_Legend_GOTY",
            "price":34,
            "discount":75,
            "developer":null,
            "thumbnail":"",
            "short_description":"Master Chief and the Chaos Legend GOTY is an amazing game.",
            "long_description":"Master Chief and the Chaos Legend GOTY is an amazing game. This is a long description.",
            "release_date":"2017-01-15T18:10:57.600Z",
            "update_date":"2017-01-15T18:10:57.805Z",
            "tags":[
                22,
                26,
                28,
                34,
                35,
                38
            ]
        }
    },
    {
        "model":"gamebrowser.game",
        "pk":50,
        "fields":{
            "name":"Super Mario: Dark Uprising Redux",
            "url":"http://www.game.com/Super_Mario:_Dark_Uprising_Redux",
            "price":29,
            "discount":0,
            "developer":null,
            "thumbnail":"",
            "short_description":"Super Mario: Dark Uprising Redux is a classic game.",
            "long_description":"Super Mario: Dark Uprising Redux is a classic game. This is a long description.",
            "release_date":"2017-01-15T18:10:57.835Z",
            "update_date":"2017-01-15T18:10:58.033Z",
            "tags":[
                25,
                26,
                27,
                33,
                35
            ]
        }
    },
    {
        "model":"gamebrowser.game",
        "pk":51,
        "fields":{
            "name":"Master Chief's Legendary Crystals Remastered",
            "url":"http://www.game.com/Master_Chief_s_Legendary_Crystals_Remastered",
            "price":99,
            "discount":0,
            "developer":null,
            "thumbnail":"",
            "short_description":"Master Chief's Legendary Crystals Remastered is a new game.",
            "long_description":"Master Chief's Legendary Crystals Remastered is a new game. This is a long description.",
            "release_date":"2017-01-15T18:10:58.062Z",
            "update_date":"2017-01-15T18:10:58.376Z",
            "tags":[
                21,
                28,
                31,
                33,
                36,
                37
            ]
        }
    },
    {
        "model":"gamebrowser.game",
        "pk":52,
        "fields":{
            "name":"Barbie's Legendary Uprising 3",
            "url":"http://www.game.com/Barbie_s_Legendary_Uprising_3",
            "price":29,
            "discount":25,
            "developer":null,
            "thumbnail":"",
            "short_description":"Barbie's Legendary Uprising 3 is a new game.",
            "long_description":"Barbie's Legendary Uprising 3 is a new game. This is a long description.",
            "release_date":"2017-01-15T18:10:58.437Z",
            "update_date":"2017-01-15T18:10:58.544Z",
            "tags":[
                34,
                36
            ]
        }
    },
    {
        "model":"gamebrowser.game",
        "pk":53,
        "fields":{
            "name":"Master Chief: Chaos Adventure: Prepare to Die Edition",
            "url":"http://www.game.com/Master_Chief:_Chaos_Adventure:_Prepare_to_Die_Edition",
            "price":17,
            "discount":25,
            "developer":null,
            "thumbnail":"",
            "short_description":"Master Chief: Chaos Adventure: Prepare to Die Edition is a great game.",
            "long_description":"Master Chief: Chaos Adventure: Prepare to Die Edition is a great game. This is a long description.",
            "release_date":"2017-01-15T18:10:58.578Z",
            "update_date":"2017-01-15T18:10:58.840Z",
            "tags":[
                21,
                22,
                24,
                34,
                36,
                37
            ]
        }
    },
    {
        "model":"gamebrowser.game",
        "pk":54,
        "fields":{
            "name":"Sonic's Legendary Warfare: Legendary Edition",
            "url":"http://www.game.com/Sonic_s_Legendary_Warfare:_Legendary_Edition",
            "price":64,
            "discount":0,
            "developer":null,
            "thumbnail":"",
            "short_description":"Sonic's Legendary Warfare: Legendary Edition is a great game.",
            "long_description":"Sonic's Legendary Warfare: Legendary Edition is a great game. This is a long description.",
            "release_date":"2017-01-15T18:10:58.866Z",
            "update_date":"2017-01-15T18:10:59.080Z",
            "tags":[
                24,
                25,
                29,
                30,
                40
            ]
        }
    },
    {
        "model":"gamebrowser.game",
        "pk":55,
        "fields":{
            "name":"The Witcher: Magical Doom: Legendary Edition",
            "url":"http://www.game.com/The_Witcher:_Magical_Doom:_Legendary_Edition",
            "price":92,
            "discount":0,
            "developer":null,
            "thumbnail":"",
            "short_description":"The Witcher: Magical Doom: Legendary Edition is a classic game.",
            "long_description":"The Witcher: Magical Doom: Legendary Edition is a classic game. This is a long description.",
            "release_date":"2017-01-15T18:10:59.141Z",
            "update_date":"2017-01-15T18:10:59.368Z",
            "tags":[
                26,
                27,
                28,
                29,
                33,
                36,
                39
            ]
        }
    },
    {
        "model":"gamebrowser.game",
        "pk":56,
        "fields":{
            "name":"Duke Nukem: Lost Fantasy",
            "url":"http://www.game.com/Duke_Nukem:_Lost_Fantasy",
            "price":25,
            "discount":25,
            "developer":null,
            "thumbnail":"",
            "short_description":"Duke Nukem: Lost Fantasy is an amazing game.",
            "long_description":"Duke Nukem: Lost Fantasy is an amazing game. This is a long description.",
            "release_date":"2017-01-15T18:10:59.399Z",
            "update_date":"2017-01-15T18:10:59.744Z",
            "tags":[
                21,
                26,
                28,
                34,
                36,
                38
            ]
        }
    },
    {
        "model":"gamebrowser.game",
        "pk":57,
        "fields":{
            "name":"Duke Nukem's Sexy Legend DX",
            "url":"http://www.game.com/Duke_Nukem_s_Sexy_Legend_DX",
            "price":87,
            "discount":50,
            "developer":null,
            "thumbnail":"",
            "short_description":"Duke Nukem's Sexy Legend DX is an amazing game.",
            "long_description":"Duke Nukem's Sexy Legend DX is an amazing game. This is a long description.",
            "release_date":"2017-01-15T18:10:59.767Z",
            "update_date":"2017-01-15T18:10:59.945Z",
            "tags":[
                21,
                22,
                26,
                27,
                37
            ]
        }
    },
    {
        "model":"gamebrowser.game",
        "pk":58,
        "fields":{
            "name":"Garfield: Lost Legend: Legendary Edition",
            "url":"http://www.game.com/Garfield:_Lost_Legend:_Legendary_Edition",
            "price":69,
            "discount":50,
            "developer":null,
            "thumbnail":"",
            "short_description":"Garfield: Lost Legend: Legendary Edition is a new game.",
            "long_description":"Garfield: Lost Legend: Legendary Edition is a new game. This is a long description.",
            "release_date":"2017-01-15T18:11:00.063Z",
            "update_date":"2017-01-15T18:11:00.288Z",
            "tags":[
                22,
                23,
                25,
                26,
                30
            ]
        }
    },
    {
        "model":"gamebrowser.game",
        "pk":59,
        "fields":{
            "name":"Garfield: Final Fantasy Redux",
            "url":"http://www.game.com/Garfield:_Final_Fantasy_Redux",
            "price":67,
            "discount":75,
            "developer":null,
            "thumbnail":"",
            "short_description":"Garfield: Final Fantasy Redux is an amazing game.",
            "long_description":"Garfield: Final Fantasy Redux is an amazing game. This is a long description.",
            "release_date":"2017-01-15T18:11:00.315Z",
            "update_date":"2017-01-15T18:11:00.658Z",
            "tags":[
                22,
                23,
                24,
                26,
                27,
                32,
                33,
                35,
                37,
                40
            ]
        }
    },
    {
        "model":"gamebrowser.game",
        "pk":60,
        "fields":{
            "name":"Nathan Drake and the Lost Fantasy Redux",
            "url":"http://www.game.com/Nathan_Drake_and_the_Lost_Fantasy_Redux",
            "price":91,
            "discount":75,
            "developer":null,
            "thumbnail":"",
            "short_description":"Nathan Drake and the Lost Fantasy Redux is a classic game.",
            "long_description":"Nathan Drake and the Lost Fantasy Redux is a classic game. This is a long description.",
            "release_date":"2017-01-15T18:11:00.688Z",
            "update_date":"2017-01-15T18:11:00.990Z",
            "tags":[
                23,
                29,
                30,
                32,
                34,
                37
            ]
        }
    },
    {
        "model":"gamebrowser.game",
        "pk":61,
        "fields":{
            "name":"Lara Croft in the Dead Crystals GOTY",
            "url":"http://www.game.com/Lara_Croft_in_the_Dead_Crystals_GOTY",
            "price":94,
            "discount":50,
            "developer":null,
            "thumbnail":"",
            "short_description":"Lara Croft in the Dead Crystals GOTY is a great game.",
            "long_description":"Lara Croft in the Dead Crystals GOTY is a great game. This is a long description.",
            "release_date":"2017-01-15T18:11:01.019Z",
            "update_date":"2017-01-15T18:11:01.363Z",
            "tags":[
                21,
                24,
                25,
                30,
                32,
                34
            ]
        }
    },
    {
        "model":"gamebrowser.game",
        "pk":62,
        "fields":{
            "name":"Master Chief: Sexy Adventure DX",
            "url":"http://www.game.com/Master_Chief:_Sexy_Adventure_DX",
            "price":9,
            "discount":0,
            "developer":null,
            "thumbnail":"",
            "short_description":"Master Chief: Sexy Adventure DX is an action-packed game.",
            "long_description":"Master Chief: Sexy Adventure DX is an action-packed game. This is a long description.",
            "release_date":"2017-01-15T18:11:01.389Z",
            "update_date":"2017-01-15T18:11:01.488Z",
            "tags":[
                33,
                38
            ]
        }
    },
    {
        "model":"gamebrowser.game",
        "pk":63,
        "fields":{
            "name":"Master Chief: The Lost Warfare DX",
            "url":"http://www.game.com/Master_Chief:_The_Lost_Warfare_DX",
            "price":30,
            "discount":25,
            "developer":null,
            "thumbnail":"",
            "short_description":"Master Chief: The Lost Warfare DX is a new game.",
            "long_description":"Master Chief: The Lost Warfare DX is a new game. This is a long description.",
            "release_date":"2017-01-15T18:11:01.525Z",
            "update_date":"2017-01-15T18:11:01.671Z",
            "tags":[
                23,
                27,
                32
            ]
        }
    },
    {
        "model":"gamebrowser.game",
        "pk":64,
        "fields":{
            "name":"Garfield in the Final Souls: Legendary Edition",
            "url":"http://www.game.com/Garfield_in_the_Final_Souls:_Legendary_Edition",
            "price":44,
            "discount":50,
            "developer":null,
            "thumbnail":"",
            "short_description":"Garfield in the Final Souls: Legendary Edition is a classic game.",
            "long_description":"Garfield in the Final Souls: Legendary Edition is a classic game. This is a long description.",
            "release_date":"2017-01-15T18:11:01.712Z",
            "update_date":"2017-01-15T18:11:01.850Z",
            "tags":[
                22,
                32,
                40
            ]
        }
    },
    {
        "model":"gamebrowser.game",
        "pk":65,
        "fields":{
            "name":"Sonic: The Chaos Shock 3",
            "url":"http://www.game.com/Sonic:_The_Chaos_Shock_3",
            "price":24,
            "discount":75,
            "developer":null,
            "thumbnail":"",
            "short_description":"Sonic: The Chaos Shock 3 is an action-packed game.",
            "long_description":"Sonic: The Chaos Shock 3 is an action-packed game. This is a long description.",
            "release_date":"2017-01-15T18:11:01.895Z",
            "update_date":"2017-01-15T18:11:02.237Z",
            "tags":[
                21,
                26,
                27,
                29,
                31,
                32,
                35
            ]
        }
    },
    {
        "model":"gamebrowser.game",
        "pk":66,
        "fields":{
            "name":"Duke Nukem in the Final Souls: Legendary Edition",
            "url":"http://www.game.com/Duke_Nukem_in_the_Final_Souls:_Legendary_Edition",
            "price":38,
            "discount":50,
            "developer":null,
            "thumbnail":"",
            "short_description":"Duke Nukem in the Final Souls: Legendary Edition is a great game.",
            "long_description":"Duke Nukem in the Final Souls: Legendary Edition is a great game. This is a long description.",
            "release_date":"2017-01-15T18:11:02.262Z",
            "update_date":"2017-01-15T18:11:02.580Z",
            "tags":[
                30,
                35,
                36,
                38,
                40
            ]
        }
    },
    {
        "model":"gamebrowser.game",
        "pk":67,
        "fields":{
            "name":"Duke Nukem: The Final Adventure: Legendary Edition",
            "url":"http://www.game.com/Duke_Nukem:_The_Final_Adventure:_Legendary_Edition",
            "price":88,
            "discount":0,
            "developer":null,
            "thumbnail":"",
            "short_description":"Duke Nukem: The Final Adventure: Legendary Edition is a new game.",
            "long_description":"Duke Nukem: The Final Adventure: Legendary Edition is a new game. This is a long description.",
            "release_date":"2017-01-15T18:11:02.614Z",
            "update_date":"2017-01-15T18:11:02.933Z",
            "tags":[
                21,
                22,
                29,
                35,
                39
            ]
        }
    },
    {
        "model":"gamebrowser.game",
        "pk":68,
        "fields":{
            "name":"Super Mario: The Final Souls: Legendary Edition",
            "url":"http://www.game.com/Super_Mario:_The_Final_Souls:_Legendary_Edition",
            "price":55,
            "discount":50,
            "developer":null,
            "thumbnail":"",
            "short_description":"Super Mario: The Final Souls: Legendary Edition is a new game.",
            "long_description":"Super Mario: The Final Souls: Legendary Edition is a new game. This is a long description.",
            "release_date":"2017-01-15T18:11:02.968Z",
            "update_date":"2017-01-15T18:11:03.248Z",
            "tags":[
                23,
                25,
                36,
                39,
                40
            ]
        }
    },
    {
        "model":"gamebrowser.game",
        "pk":69,
        "fields":{
            "name":"Sonic: Epic Adventure Remastered",
            "url":"http://www.game.com/Sonic:_Epic_Adventure_Remastered",
            "price":26,
            "discount":25,
            "developer":null,
            "thumbnail":"",
            "short_description":"Sonic: Epic Adventure Remastered is a classic game.",
            "long_description":"Sonic: Epic Adventure Remastered is a classic game. This is a long description.",
            "release_date":"2017-01-15T18:11:03.292Z",
            "update_date":"2017-01-15T18:11:03.641Z",
            "tags":[
                23,
                27,
                30,
                34,
                39
            ]
        }
    },
    {
        "model":"gamebrowser.game",
        "pk":70,
        "fields":{
            "name":"Sonic in the Chaos Warfare: Prepare to Die Edition",
            "url":"http://www.game.com/Sonic_in_the_Chaos_Warfare:_Prepare_to_Die_Edition",
            "price":47,
            "discount":25,
            "developer":null,
            "thumbnail":"",
            "short_description":"Sonic in the Chaos Warfare: Prepare to Die Edition is a great game.",
            "long_description":"Sonic in the Chaos Warfare: Prepare to Die Edition is a great game. This is a long description.",
            "release_date":"2017-01-15T18:11:03.671Z",
            "update_date":"2017-01-15T18:11:03.926Z",
            "tags":[
                23,
                29,
                32,
                37,
                38,
                39,
                40
            ]
        }
    },
    {
        "model":"gamebrowser.game",
        "pk":71,
        "fields":{
            "name":"The Witcher: Chaos Souls Remastered",
            "url":"http://www.game.com/The_Witcher:_Chaos_Souls_Remastered",
            "price":44,
            "discount":25,
            "developer":null,
            "thumbnail":"",
            "short_description":"The Witcher: Chaos Souls Remastered is an amazing game.",
            "long_description":"The Witcher: Chaos Souls Remastered is an amazing game. This is a long description.",
            "release_date":"2017-01-15T18:11:03.950Z",
            "update_date":"2017-01-15T18:11:04.191Z",
            "tags":[
                22,
                24,
                26,
                28,
                32,
                33,
                34,
                35
            ]
        }
    },
    {
        "model":"gamebrowser.game",
        "pk":72,
        "fields":{
            "name":"Nathan Drake's Legendary World Redux",
            "url":"http://www.game.com/Nathan_Drake_s_Legendary_World_Redux",
            "price":95,
            "discount":50,
            "developer":null,
            "thumbnail":"",
            "short_description":"Nathan Drake's Legendary World Redux is an action-packed game.",
            "long_description":"Nathan Drake's Legendary World Redux is an action-packed game. This is a long description.",
            "release_date":"2017-01-15T18:11:04.213Z",
            "update_date":"2017-01-15T18:11:04.471Z",
            "tags":[
                21,
                23,
                25,
                26,
                28,
                30,
                35
            ]
        }
    },
    {
        "model":"gamebrowser.game",
        "pk":73,
        "fields":{
            "name":"Super Mario in the Dark Souls 2",
            "url":"http://www.game.com/Super_Mario_in_the_Dark_Souls_2",
            "price":62,
            "discount":25,
            "developer":null,
            "thumbnail":"",
            "short_description":"Super Mario in the Dark Souls 2 is a new game.",
            "long_description":"Super Mario in the Dark Souls 2 is a new game. This is a long description.",
            "release_date":"2017-01-15T18:11:04.493Z",
            "update_date":"2017-01-15T18:11:04.642Z",
            "tags":[
                25,
                33
            ]
        }
    },
    {
        "model":"gamebrowser.game",
        "pk":74,
        "fields":{
            "name":"Zelda: Endless World",
            "url":"http://www.game.com/Zelda:_Endless_World",
            "price":1,
            "discount":25,
            "developer":null,
            "thumbnail":"",
            "short_description":"Zelda: Endless World is a classic game.",
            "long_description":"Zelda: Endless World is a classic game. This is a long description.",
            "release_date":"2017-01-15T18:11:04.669Z",
            "update_date":"2017-01-15T18:11:04.911Z",
            "tags":[
                22,
                26,
                27,
                29,
                32,
                36,
                37
            ]
        }
    },
    {
        "model":"gamebrowser.game",
        "pk":75,
        "fields":{
            "name":"Barbie in the Dark Warfare: Legendary Edition",
            "url":"http://www.game.com/Barbie_in_the_Dark_Warfare:_Legendary_Edition",
            "price":38,
            "discount":50,
            "developer":null,
            "thumbnail":"",
            "short_description":"Barbie in the Dark Warfare: Legendary Edition is a classic game.",
            "long_description":"Barbie in the Dark Warfare: Legendary Edition is a classic game. This is a long description.",
            "release_date":"2017-01-15T18:11:04.937Z",
            "update_date":"2017-01-15T18:11:05.089Z",
            "tags":[
                26,
                29,
                32,
                37
            ]
        }
    },
    {
        "model":"gamebrowser.game",
        "pk":76,
        "fields":{
            "name":"Barbie: Magical Legend 2",
            "url":"http://www.game.com/Barbie:_Magical_Legend_2",
            "price":84,
            "discount":0,
            "developer":null,
            "thumbnail":"",
            "short_description":"Barbie: Magical Legend 2 is a new game.",
            "long_description":"Barbie: Magical Legend 2 is a new game. This is a long description.",
            "release_date":"2017-01-15T18:11:05.117Z",
            "update_date":"2017-01-15T18:11:05.239Z",
            "tags":[
                34,
                37
            ]
        }
    },
    {
        "model":"gamebrowser.game",
        "pk":77,
        "fields":{
            "name":"Garfield's Epic Warfare DX",
            "url":"http://www.game.com/Garfield_s_Epic_Warfare_DX",
            "price":1,
            "discount":75,
            "developer":null,
            "thumbnail":"",
            "short_description":"Garfield's Epic Warfare DX is a new game.",
            "long_description":"Garfield's Epic Warfare DX is a new game. This is a long description.",
            "release_date":"2017-01-15T18:11:05.314Z",
            "update_date":"2017-01-15T18:11:05.562Z",
            "tags":[
                22,
                23,
                24,
                27,
                31,
                36
            ]
        }
    },
    {
        "model":"gamebrowser.game",
        "pk":78,
        "fields":{
            "name":"Duke Nukem: The Epic Crystals DX",
            "url":"http://www.game.com/Duke_Nukem:_The_Epic_Crystals_DX",
            "price":48,
            "discount":25,
            "developer":null,
            "thumbnail":"",
            "short_description":"Duke Nukem: The Epic Crystals DX is a great game.",
            "long_description":"Duke Nukem: The Epic Crystals DX is a great game. This is a long description.",
            "release_date":"2017-01-15T18:11:05.614Z",
            "update_date":"2017-01-15T18:11:05.902Z",
            "tags":[
                21,
                22,
                29,
                31,
                33,
                37
            ]
        }
    },
    {
        "model":"gamebrowser.game",
        "pk":79,
        "fields":{
            "name":"Master Chief: The Sexy Doom Redux",
            "url":"http://www.game.com/Master_Chief:_The_Sexy_Doom_Redux",
            "price":50,
            "discount":50,
            "developer":null,
            "thumbnail":"",
            "short_description":"Master Chief: The Sexy Doom Redux is an action-packed game.",
            "long_description":"Master Chief: The Sexy Doom Redux is an action-packed game. This is a long description.",
            "release_date":"2017-01-15T18:11:05.936Z",
            "update_date":"2017-01-15T18:11:06.140Z",
            "tags":[
                27,
                32,
                34,
                36,
                37,
                40
            ]
        }
    },
    {
        "model":"gamebrowser.game",
        "pk":80,
        "fields":{
            "name":"Super Mario: The Final Doom",
            "url":"http://www.game.com/Super_Mario:_The_Final_Doom",
            "price":85,
            "discount":50,
            "developer":null,
            "thumbnail":"",
            "short_description":"Super Mario: The Final Doom is a new game.",
            "long_description":"Super Mario: The Final Doom is a new game. This is a long description.",
            "release_date":"2017-01-15T18:11:06.172Z",
            "update_date":"2017-01-15T18:11:06.545Z",
            "tags":[
                21,
                22,
                24,
                26,
                28,
                29,
                32,
                33,
                36,
                37
            ]
        }
    },
    {
        "model":"gamebrowser.game",
        "pk":81,
        "fields":{
            "name":"Zelda: The Sexy Adventure GOTY",
            "url":"http://www.game.com/Zelda:_The_Sexy_Adventure_GOTY",
            "price":72,
            "discount":50,
            "developer":null,
            "thumbnail":"",
            "short_description":"Zelda: The Sexy Adventure GOTY is a new game.",
            "long_description":"Zelda: The Sexy Adventure GOTY is a new game. This is a long description.",
            "release_date":"2017-01-15T18:11:06.577Z",
            "update_date":"2017-01-15T18:11:06.759Z",
            "tags":[
                31,
                34,
                36,
                38,
                40
            ]
        }
    },
    {
        "model":"gamebrowser.game",
        "pk":82,
        "fields":{
            "name":"Garfield's Chaos Doom: Legendary Edition",
            "url":"http://www.game.com/Garfield_s_Chaos_Doom:_Legendary_Edition",
            "price":14,
            "discount":75,
            "developer":null,
            "thumbnail":"",
            "short_description":"Garfield's Chaos Doom: Legendary Edition is a new game.",
            "long_description":"Garfield's Chaos Doom: Legendary Edition is a new game. This is a long description.",
            "release_date":"2017-01-15T18:11:06.784Z",
            "update_date":"2017-01-15T18:11:07.222Z",
            "tags":[
                22,
                23,
                24,
                26,
                27,
                29,
                38
            ]
        }
    },
    {
        "model":"gamebrowser.game",
        "pk":83,
        "fields":{
            "name":"Sonic's Lost Legend Remastered",
            "url":"http://www.game.com/Sonic_s_Lost_Legend_Remastered",
            "price":27,
            "discount":0,
            "developer":null,
            "thumbnail":"",
            "short_description":"Sonic's Lost Legend Remastered is a classic game.",
            "long_description":"Sonic's Lost Legend Remastered is a classic game. This is a long description.",
            "release_date":"2017-01-15T18:11:07.259Z",
            "update_date":"2017-01-15T18:11:07.494Z",
            "tags":[
                28,
                29,
                31,
                33,
                34,
                40
            ]
        }
    },
    {
        "model":"gamebrowser.game",
        "pk":84,
        "fields":{
            "name":"Duke Nukem in the Sexy Fantasy Redux",
            "url":"http://www.game.com/Duke_Nukem_in_the_Sexy_Fantasy_Redux",
            "price":40,
            "discount":25,
            "developer":null,
            "thumbnail":"",
            "short_description":"Duke Nukem in the Sexy Fantasy Redux is a classic game.",
            "long_description":"Duke Nukem in the Sexy Fantasy Redux is a classic game. This is a long description.",
            "release_date":"2017-01-15T18:11:07.544Z",
            "update_date":"2017-01-15T18:11:07.706Z",
            "tags":[
                22,
                25,
                27,
                39
            ]
        }
    },
    {
        "model":"gamebrowser.game",
        "pk":85,
        "fields":{
            "name":"Duke Nukem: The Dead Souls DX",
            "url":"http://www.game.com/Duke_Nukem:_The_Dead_Souls_DX",
            "price":14,
            "discount":75,
            "developer":null,
            "thumbnail":"",
            "short_description":"Duke Nukem: The Dead Souls DX is an amazing game.",
            "long_description":"Duke Nukem: The Dead Souls DX is an amazing game. This is a long description.",
            "release_date":"2017-01-15T18:11:07.748Z",
            "update_date":"2017-01-15T18:11:07.996Z",
            "tags":[
                21,
                26,
                27,
                28,
                29,
                31,
                38
            ]
        }
    },
    {
        "model":"gamebrowser.game",
        "pk":86,
        "fields":{
            "name":"Garfield: The Lost Shock",
            "url":"http://www.game.com/Garfield:_The_Lost_Shock",
            "price":42,
            "discount":25,
            "developer":null,
            "thumbnail":"",
            "short_description":"Garfield: The Lost Shock is an amazing game.",
            "long_description":"Garfield: The Lost Shock is an amazing game. This is a long description.",
            "release_date":"2017-01-15T18:11:08.020Z",
            "update_date":"2017-01-15T18:11:08.110Z",
            "tags":[
                30,
                35
            ]
        }
    },
    {
        "model":"gamebrowser.game",
        "pk":87,
        "fields":{
            "name":"Barbie: Endless Warfare DX",
            "url":"http://www.game.com/Barbie:_Endless_Warfare_DX",
            "price":97,
            "discount":0,
            "developer":null,
            "thumbnail":"",
            "short_description":"Barbie: Endless Warfare DX is a classic game.",
            "long_description":"Barbie: Endless Warfare DX is a classic game. This is a long description.",
            "release_date":"2017-01-15T18:11:08.142Z",
            "update_date":"2017-01-15T18:11:08.327Z",
            "tags":[
                32,
                33,
                34,
                40
            ]
        }
    },
    {
        "model":"gamebrowser.game",
        "pk":88,
        "fields":{
            "name":"The Witcher: Magical Doom Redux",
            "url":"http://www.game.com/The_Witcher:_Magical_Doom_Redux",
            "price":1,
            "discount":50,
            "developer":null,
            "thumbnail":"",
            "short_description":"The Witcher: Magical Doom Redux is an action-packed game.",
            "long_description":"The Witcher: Magical Doom Redux is an action-packed game. This is a long description.",
            "release_date":"2017-01-15T18:11:08.368Z",
            "update_date":"2017-01-15T18:11:08.562Z",
            "tags":[
                23,
                25,
                29,
                40
            ]
        }
    },
    {
        "model":"gamebrowser.game",
        "pk":89,
        "fields":{
            "name":"Master Chief: The Sexy Uprising",
            "url":"http://www.game.com/Master_Chief:_The_Sexy_Uprising",
            "price":34,
            "discount":75,
            "developer":null,
            "thumbnail":"",
            "short_description":"Master Chief: The Sexy Uprising is a classic game.",
            "long_description":"Master Chief: The Sexy Uprising is a classic game. This is a long description.",
            "release_date":"2017-01-15T18:11:08.589Z",
            "update_date":"2017-01-15T18:11:08.793Z",
            "tags":[
                25,
                33,
                34,
                38,
                39
            ]
        }
    },
    {
        "model":"gamebrowser.game",
        "pk":90,
        "fields":{
            "name":"Garfield's Epic Fantasy: Legendary Edition",
            "url":"http://www.game.com/Garfield_s_Epic_Fantasy:_Legendary_Edition",
            "price":31,
            "discount":25,
            "developer":null,
            "thumbnail":"",
            "short_description":"Garfield's Epic Fantasy: Legendary Edition is a new game.",
            "long_description":"Garfield's Epic Fantasy: Legendary Edition is a new game. This is a long description.",
            "release_date":"2017-01-15T18:11:08.820Z",
            "update_date":"2017-01-15T18:11:09.102Z",
            "tags":[
                21,
                24,
                25,
                27,
                29,
                35,
                38
            ]
        }
    },
    {
        "model":"gamebrowser.game",
        "pk":91,
        "fields":{
            "name":"Master Chief in the Sexy World: Director's Cut",
            "url":"http://www.game.com/Master_Chief_in_the_Sexy_World:_Director_s_Cut",
            "price":13,
            "discount":0,
            "developer":null,
            "thumbnail":"",
            "short_description":"Master Chief in the Sexy World: Director's Cut is an amazing game.",
            "long_description":"Master Chief in the Sexy World: Director's Cut is an amazing game. This is a long description.",
            "release_date":"2017-01-15T18:11:09.134Z",
            "update_date":"2017-01-15T18:11:09.260Z",
            "tags":[
                26,
                38
            ]
        }
    },
    {
        "model":"gamebrowser.game",
        "pk":92,
        "fields":{
            "name":"Nathan Drake: The Dark Souls DX",
            "url":"http://www.game.com/Nathan_Drake:_The_Dark_Souls_DX",
            "price":20,
            "discount":50,
            "developer":null,
            "thumbnail":"",
            "short_description":"Nathan Drake: The Dark Souls DX is an amazing game.",
            "long_description":"Nathan Drake: The Dark Souls DX is an amazing game. This is a long description.",
            "release_date":"2017-01-15T18:11:09.292Z",
            "update_date":"2017-01-15T18:11:09.532Z",
            "tags":[
                23,
                24,
                26,
                28,
                30,
                40
            ]
        }
    },
    {
        "model":"gamebrowser.game",
        "pk":93,
        "fields":{
            "name":"Super Mario and the Magical Doom: Prepare to Die Edition",
            "url":"http://www.game.com/Super_Mario_and_the_Magical_Doom:_Prepare_to_Die_Edition",
            "price":37,
            "discount":0,
            "developer":null,
            "thumbnail":"",
            "short_description":"Super Mario and the Magical Doom: Prepare to Die Edition is a great game.",
            "long_description":"Super Mario and the Magical Doom: Prepare to Die Edition is a great game. This is a long description.",
            "release_date":"2017-01-15T18:11:09.565Z",
            "update_date":"2017-01-15T18:11:09.762Z",
            "tags":[
                22,
                34
            ]
        }
    },
    {
        "model":"gamebrowser.game",
        "pk":94,
        "fields":{
            "name":"Garfield: The Epic World: Prepare to Die Edition",
            "url":"http://www.game.com/Garfield:_The_Epic_World:_Prepare_to_Die_Edition",
            "price":49,
            "discount":75,
            "developer":null,
            "thumbnail":"",
            "short_description":"Garfield: The Epic World: Prepare to Die Edition is an amazing game.",
            "long_description":"Garfield: The Epic World: Prepare to Die Edition is an amazing game. This is a long description.",
            "release_date":"2017-01-15T18:11:09.796Z",
            "update_date":"2017-01-15T18:11:10.075Z",
            "tags":[
                21,
                23,
                28,
                30,
                33,
                36,
                37,
                39
            ]
        }
    },
    {
        "model":"gamebrowser.game",
        "pk":95,
        "fields":{
            "name":"Lara Croft in the Chaos World: Director's Cut",
            "url":"http://www.game.com/Lara_Croft_in_the_Chaos_World:_Director_s_Cut",
            "price":72,
            "discount":75,
            "developer":null,
            "thumbnail":"",
            "short_description":"Lara Croft in the Chaos World: Director's Cut is a new game.",
            "long_description":"Lara Croft in the Chaos World: Director's Cut is a new game. This is a long description.",
            "release_date":"2017-01-15T18:11:10.106Z",
            "update_date":"2017-01-15T18:11:10.291Z",
            "tags":[
                27,
                30,
                32,
                39
            ]
        }
    },
    {
        "model":"gamebrowser.game",
        "pk":96,
        "fields":{
            "name":"Lara Croft and the Magical Crystals: Director's Cut",
            "url":"http://www.game.com/Lara_Croft_and_the_Magical_Crystals:_Director_s_Cut",
            "price":40,
            "discount":75,
            "developer":null,
            "thumbnail":"",
            "short_description":"Lara Croft and the Magical Crystals: Director's Cut is a great game.",
            "long_description":"Lara Croft and the Magical Crystals: Director's Cut is a great game. This is a long description.",
            "release_date":"2017-01-15T18:11:10.321Z",
            "update_date":"2017-01-15T18:11:10.672Z",
            "tags":[
                21,
                22,
                24,
                25,
                26,
                29,
                30,
                32,
                39
            ]
        }
    },
    {
        "model":"gamebrowser.game",
        "pk":97,
        "fields":{
            "name":"Lara Croft: The Dark World: Director's Cut",
            "url":"http://www.game.com/Lara_Croft:_The_Dark_World:_Director_s_Cut",
            "price":20,
            "discount":75,
            "developer":null,
            "thumbnail":"",
            "short_description":"Lara Croft: The Dark World: Director's Cut is an amazing game.",
            "long_description":"Lara Croft: The Dark World: Director's Cut is an amazing game. This is a long description.",
            "release_date":"2017-01-15T18:11:10.698Z",
            "update_date":"2017-01-15T18:11:10.990Z",
            "tags":[
                27,
                30,
                34,
                35,
                37
            ]
        }
    },
    {
        "model":"gamebrowser.game",
        "pk":98,
        "fields":{
            "name":"Duke Nukem: Dead Legend Remastered",
            "url":"http://www.game.com/Duke_Nukem:_Dead_Legend_Remastered",
            "price":94,
            "discount":25,
            "developer":null,
            "thumbnail":"",
            "short_description":"Duke Nukem: Dead Legend Remastered is an amazing game.",
            "long_description":"Duke Nukem: Dead Legend Remastered is an amazing game. This is a long description.",
            "release_date":"2017-01-15T18:11:11.017Z",
            "update_date":"2017-01-15T18:11:11.157Z",
            "tags":[
                24,
                29,
                31
            ]
        }
    },
    {
        "model":"gamebrowser.game",
        "pk":99,
        "fields":{
            "name":"Nathan Drake: Endless Doom",
            "url":"http://www.game.com/Nathan_Drake:_Endless_Doom",
            "price":22,
            "discount":50,
            "developer":null,
            "thumbnail":"",
            "short_description":"Nathan Drake: Endless Doom is an amazing game.",
            "long_description":"Nathan Drake: Endless Doom is an amazing game. This is a long description.",
            "release_date":"2017-01-15T18:11:11.195Z",
            "update_date":"2017-01-15T18:11:11.434Z",
            "tags":[
                21,
                23,
                24,
                26,
                28
            ]
        }
    },
    {
        "model":"gamebrowser.game",
        "pk":100,
        "fields":{
            "name":"Garfield: The Magical World",
            "url":"http://www.game.com/Garfield:_The_Magical_World",
            "price":44,
            "discount":0,
            "developer":null,
            "thumbnail":"",
            "short_description":"Garfield: The Magical World is an action-packed game.",
            "long_description":"Garfield: The Magical World is an action-packed game. This is a long description.",
            "release_date":"2017-01-15T18:11:11.489Z",
            "update_date":"2017-01-15T18:11:11.631Z",
            "tags":[
                26,
                27,
                36,
                40
            ]
        }
    }
]